<?xml version="1.0" encoding="utf-8"?>
<!-- Generator: Adobe Illustrator 18.1.1, SVG Export Plug-In . SVG Version: 6.00 Build 0)  -->
<svg version="1.1" id="Layer_1" xmlns="http://www.w3.org/2000/svg" xmlns:xlink="http://www.w3.org/1999/xlink" x="0px" y="0px"
	 viewBox="0 0 31 31" enable-background="new 0 0 31 31" xml:space="preserve">
<g>
	<g>
		<g>
			<path fill="#CECCCC" d="M25.5,0.5c2.8,0,5,2.2,5,5v20c0,2.8-2.2,5-5,5h-20c-2.8,0-5-2.2-5-5v-20c0-2.8,2.2-5,5-5H25.5z"/>
		</g>
		<path fill="#919191" d="M5.5,0l20,0c3,0,5.5,2.5,5.5,5.5v20c0,3-2.5,5.5-5.5,5.5h-20c-3,0-5.5-2.5-5.5-5.5l0-20C0,2.5,2.5,0,5.5,0
			z M25.5,30c2.5,0,4.5-2,4.5-4.5v-20C30,3,28,1,25.5,1h-20C3,1,1,3,1,5.5v20C1,28,3,30,5.5,30H25.5z"/>
	</g>
	<path fill="#919191" d="M20.5,4.9c0.3,0,0.5,0.1,0.7,0.3c0.4,0.4,0.4,1,0,1.4l-9.2,8.9l9.2,8.9c0.4,0.4,0.4,1,0,1.4
		c-0.4,0.4-1,0.4-1.4,0l-10-9.6c-0.2-0.2-0.3-0.4-0.3-0.7s0.1-0.5,0.3-0.7l10-9.6C20,5,20.2,4.9,20.5,4.9z"/>
</g>
</svg>
