<?xml version="1.0" encoding="utf-8"?>
<!-- Generator: Adobe Illustrator 18.1.1, SVG Export Plug-In . SVG Version: 6.00 Build 0)  -->
<svg version="1.1" id="Layer_1" xmlns="http://www.w3.org/2000/svg" xmlns:xlink="http://www.w3.org/1999/xlink" x="0px" y="0px"
	 viewBox="0 0 630 280" enable-background="new 0 0 630 280" xml:space="preserve">
<rect x="202" y="233" fill="none" width="226" height="20"/>
<text transform="matrix(1 0 0 1 230.014 246.7158)" fill="#919191" font-family="'Dosis-Regular'" font-size="18">CAMERA NOT DETECTED</text>
<g>
	<g>
		<path fill="none" stroke="#919191" stroke-width="2" stroke-miterlimit="10" d="M349.6,168.8h-69.3c-12.5,0-22.7-10.2-22.7-22.7
			v-12.3c0-12.5,10.2-22.7,22.7-22.7h69.3c12.5,0,22.7,10.2,22.7,22.7v12.3C372.3,158.6,362.1,168.8,349.6,168.8z M315,116.7
			c-12.9,0-23.3,10.4-23.3,23.3c0,12.9,10.4,23.3,23.3,23.3s23.3-10.4,23.3-23.3C338.3,127.1,327.9,116.7,315,116.7z"/>
		<circle fill="#919191" cx="315" cy="140" r="19.9"/>
	</g>
	
		<rect x="252.3" y="137" transform="matrix(0.7071 -0.7071 0.7071 0.7071 -6.7336 263.7437)" fill="#919191" stroke="#FFFFFF" stroke-width="3" stroke-miterlimit="10" width="125.3" height="6"/>
</g>
</svg>
