<?xml version="1.0" encoding="utf-8"?>
<!-- Generator: Adobe Illustrator 18.1.1, SVG Export Plug-In . SVG Version: 6.00 Build 0)  -->
<svg version="1.1" id="Layer_1" xmlns="http://www.w3.org/2000/svg" xmlns:xlink="http://www.w3.org/1999/xlink" x="0px" y="0px"
	 viewBox="0 0 144 144" enable-background="new 0 0 144 144" xml:space="preserve">
<g>
	<path fill="#CECCCC" d="M144,93.6c0,3.5-2.7,6.2-6.2,6.2H8.2c-3.5,0-6.2-2.7-6.2-6.2V52.5c0-3.5,2.7-6.2,6.2-6.2h129.6
		c3.5,0,6.2,2.7,6.2,6.2V93.6z"/>
	<path fill="none" stroke="#919191" stroke-miterlimit="10" d="M143,92.6c0,3.5-2.7,6.2-6.2,6.2H7.2c-3.5,0-6.2-2.7-6.2-6.2V51.4
		c0-3.5,2.7-6.2,6.2-6.2h129.6c3.5,0,6.2,2.7,6.2,6.2V92.6z"/>
</g>
<g enable-background="new    ">
	<path fill="#535353" d="M52.5,75.1v-8.7c0-2.2,0.6-3.8,1.7-4.8c1.1-1,2.6-1.5,4.5-1.5c1.9,0,3.4,0.5,4.5,1.5c1.1,1,1.7,2.6,1.7,4.8
		v8.7c0,2.2-0.6,3.8-1.7,4.8c-1.1,1-2.6,1.5-4.5,1.5c-1.9,0-3.4-0.5-4.5-1.5C53,78.9,52.5,77.3,52.5,75.1z M54.9,75.1
		c0,2.7,1.3,4.1,3.8,4.1c1.2,0,2.1-0.3,2.8-1c0.7-0.7,1-1.7,1-3.1v-8.7c0-1.4-0.3-2.4-1-3.1c-0.7-0.7-1.6-1-2.8-1
		c-2.5,0-3.8,1.4-3.8,4.1V75.1z"/>
	<path fill="#535353" d="M68.8,80.4V61c0-0.3,0.1-0.5,0.3-0.6s0.5-0.2,0.8-0.2H80c0.3,0,0.5,0.1,0.6,0.3c0.1,0.2,0.2,0.5,0.2,0.7
		c0,0.3-0.1,0.6-0.2,0.8c-0.1,0.2-0.4,0.3-0.6,0.3h-8.8v7.3h4.5c0.3,0,0.5,0.1,0.6,0.3c0.1,0.2,0.2,0.4,0.2,0.7
		c0,0.2-0.1,0.5-0.2,0.7c-0.1,0.2-0.4,0.3-0.6,0.3h-4.5v8.7c0,0.3-0.1,0.5-0.4,0.6c-0.2,0.1-0.5,0.2-0.8,0.2c-0.3,0-0.6-0.1-0.8-0.2
		C68.9,80.8,68.8,80.6,68.8,80.4z"/>
	<path fill="#535353" d="M83.1,80.4V61c0-0.3,0.1-0.5,0.3-0.6s0.5-0.2,0.8-0.2h10.1c0.3,0,0.5,0.1,0.6,0.3c0.1,0.2,0.2,0.5,0.2,0.7
		c0,0.3-0.1,0.6-0.2,0.8c-0.1,0.2-0.4,0.3-0.6,0.3h-8.8v7.3H90c0.3,0,0.5,0.1,0.6,0.3c0.1,0.2,0.2,0.4,0.2,0.7
		c0,0.2-0.1,0.5-0.2,0.7c-0.1,0.2-0.4,0.3-0.6,0.3h-4.5v8.7c0,0.3-0.1,0.5-0.4,0.6c-0.2,0.1-0.5,0.2-0.8,0.2c-0.3,0-0.6-0.1-0.8-0.2
		C83.2,80.8,83.1,80.6,83.1,80.4z"/>
</g>
</svg>
