<?xml version="1.0" encoding="utf-8"?>
<!-- Generator: Adobe Illustrator 18.1.1, SVG Export Plug-In . SVG Version: 6.00 Build 0)  -->
<svg version="1.1" id="Layer_1" xmlns="http://www.w3.org/2000/svg" xmlns:xlink="http://www.w3.org/1999/xlink" x="0px" y="0px"
	 viewBox="0 0 144 144" enable-background="new 0 0 144 144" xml:space="preserve">
<g>
	<path fill="#CECCCC" d="M141.9,93.6c0,3.5-2.7,6.2-6.2,6.2H6.2c-3.5,0-6.2-2.7-6.2-6.2V52.5c0-3.5,2.7-6.2,6.2-6.2h129.6
		c3.5,0,6.2,2.7,6.2,6.2V93.6z"/>
	<path fill="none" stroke="#919191" stroke-miterlimit="10" d="M143,92.6c0,3.5-2.7,6.2-6.2,6.2H7.2c-3.5,0-6.2-2.7-6.2-6.2V51.4
		c0-3.5,2.7-6.2,6.2-6.2h129.6c3.5,0,6.2,2.7,6.2,6.2V92.6z"/>
</g>
<g>
	<g enable-background="new    ">
		<path fill="#535353" d="M57.4,74.9v-8.7c0-2.2,0.6-3.8,1.7-4.8c1.1-1,2.6-1.5,4.5-1.5c1.9,0,3.4,0.5,4.5,1.5
			c1.1,1,1.7,2.6,1.7,4.8v8.7c0,2.2-0.6,3.8-1.7,4.8c-1.1,1-2.6,1.5-4.5,1.5c-1.9,0-3.4-0.5-4.5-1.5C58,78.7,57.4,77.1,57.4,74.9z
			 M59.8,74.9c0,2.7,1.3,4.1,3.8,4.1c1.2,0,2.1-0.3,2.8-1c0.7-0.7,1-1.7,1-3.1v-8.7c0-1.4-0.3-2.4-1-3.1c-0.7-0.7-1.6-1-2.8-1
			c-2.5,0-3.8,1.4-3.8,4.1V74.9z"/>
		<path fill="#535353" d="M73.7,80.2V60.8c0-0.6,0.4-0.8,1.2-0.8c0.4,0,0.7,0.1,1,0.4c0.3,0.2,0.6,0.6,0.8,1.2l7.2,14V60.8
			c0-0.3,0.1-0.5,0.4-0.6s0.5-0.2,0.8-0.2s0.6,0.1,0.8,0.2s0.4,0.4,0.4,0.6v19.4c0,0.3-0.1,0.5-0.4,0.6c-0.2,0.2-0.5,0.2-0.8,0.2
			c-0.6,0-1.1-0.4-1.5-1.1l-7.5-14.5v14.7c0,0.3-0.1,0.5-0.4,0.6c-0.2,0.2-0.5,0.2-0.8,0.2c-0.3,0-0.6-0.1-0.8-0.2
			C73.8,80.7,73.7,80.5,73.7,80.2z"/>
	</g>
</g>
</svg>
