<?xml version="1.0" encoding="utf-8"?>
<!-- Generator: Adobe Illustrator 18.1.1, SVG Export Plug-In . SVG Version: 6.00 Build 0)  -->
<svg version="1.1" id="Layer_1" xmlns="http://www.w3.org/2000/svg" xmlns:xlink="http://www.w3.org/1999/xlink" x="0px" y="0px"
	 viewBox="0 0 34 34" enable-background="new 0 0 34 34" xml:space="preserve">
<path fill="#919191" d="M17,34C7.6,34,0,26.4,0,17S7.6,0,17,0s17,7.6,17,17S26.4,34,17,34z M17,1C8.2,1,1,8.2,1,17s7.2,16,16,16
	s16-7.2,16-16S25.8,1,17,1z"/>
<path fill="#919191" d="M8.9,27.9c-0.4,0-0.9-0.2-1.3-0.6l-1.5-1.5c-0.6-0.6-0.8-1.6-0.2-2.1L19.8,9.9c-0.2-1.3,0.3-2.6,1.2-3.6
	c1.2-1.2,3-1.6,4.5-1c0.1,0,0.2,0.1,0.2,0.3c0,0.1,0,0.3-0.1,0.3l-1.9,1.9c-0.2,0.2-0.1,0.7,0.2,1l0.7,0.7c0.2,0.2,0.4,0.3,0.7,0.3
	c0.1,0,0.2,0,0.3-0.1l1.9-1.9c0.1-0.1,0.2-0.1,0.3-0.1c0.1,0,0.2,0.1,0.3,0.2c0.6,1.6,0.2,3.3-1,4.5c-0.9,0.9-2.3,1.4-3.6,1.2
	L9.7,27.5C9.5,27.8,9.2,27.9,8.9,27.9z M24.1,5.8c-1,0-1.9,0.4-2.5,1c-0.8,0.8-1.2,2-1,3.1c0,0.1,0,0.2-0.1,0.3l-14,14
	c-0.2,0.2-0.1,0.6,0.2,1l1.5,1.5c0.2,0.2,0.5,0.3,0.7,0.3c0.1,0,0.2,0,0.3-0.1l14-14c0.1-0.1,0.2-0.1,0.3-0.1c1.1,0.2,2.3-0.2,3.1-1
	c0.8-0.8,1.2-2,1-3.1l-1.4,1.4c-0.5,0.5-1.4,0.4-2-0.2l-0.7-0.7c-0.6-0.6-0.7-1.5-0.2-2l1.4-1.4C24.5,5.8,24.3,5.8,24.1,5.8z"/>
</svg>
