<?xml version="1.0" encoding="utf-8"?>
<!-- Generator: Adobe Illustrator 18.1.1, SVG Export Plug-In . SVG Version: 6.00 Build 0)  -->
<svg version="1.1" id="Layer_1" xmlns="http://www.w3.org/2000/svg" xmlns:xlink="http://www.w3.org/1999/xlink" x="0px" y="0px"
	 viewBox="0 0 940 612" enable-background="new 0 0 940 612" xml:space="preserve">
<text transform="matrix(1 0 0 1 414.9678 367.6759)" enable-background="new    "><tspan x="0" y="0" fill="#919191" font-family="'Dosis-Regular'" font-size="12">TIMELAPSE RECORDING</tspan><tspan x="6.5" y="14.4" fill="#919191" font-family="'Dosis-Regular'" font-size="12">LIVE VIEW DISABLED</tspan></text>
<path fill="none" d="M469.9,237.9c-10.8,0-19.5,8.8-19.5,19.5c0,10.8,8.8,19.5,19.5,19.5c10.8,0,19.5-8.8,19.5-19.5
	C489.4,246.6,480.6,237.9,469.9,237.9z"/>
<path fill="#919191" d="M505.6,228.6H434c-12.4,0-22.4,10.1-22.4,22.4v12.7c0,12.4,10.1,22.4,22.4,22.4h71.6
	c12.4,0,22.4-10.1,22.4-22.4V251C528,238.6,518,228.6,505.6,228.6z M469.9,282.5c-13.9,0-25.1-11.3-25.1-25.1
	c0-13.9,11.3-25.1,25.1-25.1c13.9,0,25.1,11.3,25.1,25.1C495,271.2,483.7,282.5,469.9,282.5z"/>
<path fill="none" d="M469.2,305.8c0.3,0.2,1,0.2,1.4,0l30.6-17.6h-62.5L469.2,305.8z"/>
<path fill="#90908F" d="M469.2,305.8l-30.6-17.6H434c-0.6,0-1.2,0-1.8-0.1l35.9,20.7c0.9,0.5,2.5,0.5,3.4,0l35.9-20.7
	c-0.6,0-1.3,0.1-1.9,0.1h-4.5l-30.6,17.6C470.2,306,469.5,306,469.2,305.8z"/>
<path fill="#90908F" d="M521.9,308.1l-11-6.1c-0.2-0.1-0.4-0.2-0.6-0.2l11.7-6.8c0.6-0.4,1-1,1-1.6c0-0.6-0.4-1.2-1-1.6l-8.8-4.8
	c-1,0.3-1.9,0.6-2.9,0.7l10.3,5.7l-49.9,28.8c-0.3,0.2-1,0.2-1.4,0l-49.9-28.8l10.3-5.7c-1-0.2-2-0.4-3-0.7l-8.7,4.8
	c-0.7,0.4-1,0.9-1,1.6c0,0.6,0.4,1.2,1,1.6l11.7,6.8c-0.2,0.1-0.5,0.1-0.6,0.2l-11,6.1c-0.7,0.4-1,0.9-1,1.6c0,0.6,0.4,1.2,1,1.6
	l50.3,29c0.5,0.3,1.1,0.4,1.7,0.4c0.6,0,1.2-0.2,1.7-0.4l50.3-29c0.6-0.4,1-1,1-1.6S522.5,308.5,521.9,308.1z M470.5,338.5
	c-0.3,0.2-1,0.2-1.4,0l-49.9-28.8l10.6-5.9c0.3-0.2,1.1-0.2,1.4,0l36.8,21.2c0.9,0.5,2.5,0.5,3.4,0l36.8-21.2c0.3-0.2,1.1-0.2,1.4,0
	l10.6,5.9L470.5,338.5z"/>
<path fill="#919191" d="M469.9,235.8c-11.9,0-21.6,9.7-21.6,21.6c0,11.9,9.7,21.6,21.6,21.6c11.9,0,21.6-9.7,21.6-21.6
	C491.5,245.5,481.8,235.8,469.9,235.8z M469.9,276.9c-10.8,0-19.5-8.8-19.5-19.5c0-10.8,8.8-19.5,19.5-19.5
	c10.8,0,19.5,8.8,19.5,19.5C489.4,268.2,480.6,276.9,469.9,276.9z"/>
</svg>
